\relax 
\providecommand\hyper@newdestlabel[2]{}
\@writefile{toc}{\contentsline {chapter}{\numberline {1}Introdu\c c\~ao}{1}{chapter.1}}
\@writefile{lof}{\addvspace {10\p@ }}
\@writefile{lot}{\addvspace {10\p@ }}
\@writefile{toc}{\contentsline {section}{\numberline {1.1}Contexto}{1}{section.1.1}}
\@writefile{toc}{\contentsline {section}{\numberline {1.2}Motiva\c c\~oes}{2}{section.1.2}}
\@writefile{toc}{\contentsline {section}{\numberline {1.3}Contribui\c c\~oes}{3}{section.1.3}}
\@writefile{toc}{\contentsline {section}{\numberline {1.4}Objetivos da disserta\c c\~ao}{4}{section.1.4}}
\@writefile{toc}{\contentsline {section}{\numberline {1.5}Organiza\c c\~ao da disserta\c c\~ao}{4}{section.1.5}}
\@setckpt{Cap1/CAP1}{
\setcounter{page}{7}
\setcounter{equation}{0}
\setcounter{enumi}{0}
\setcounter{enumii}{0}
\setcounter{enumiii}{0}
\setcounter{enumiv}{0}
\setcounter{footnote}{0}
\setcounter{mpfootnote}{0}
\setcounter{part}{0}
\setcounter{chapter}{1}
\setcounter{section}{5}
\setcounter{subsection}{0}
\setcounter{subsubsection}{0}
\setcounter{paragraph}{0}
\setcounter{subparagraph}{0}
\setcounter{figure}{0}
\setcounter{table}{0}
\setcounter{parentequation}{0}
\setcounter{NAT@ctr}{0}
\setcounter{subfigure}{0}
\setcounter{lofdepth}{1}
\setcounter{subtable}{0}
\setcounter{lotdepth}{1}
\setcounter{LT@tables}{2}
\setcounter{LT@chunks}{5}
\setcounter{float@type}{32}
\setcounter{Item}{0}
\setcounter{Hfootnote}{0}
\setcounter{bookmark@seq@number}{13}
\setcounter{lstnumber}{1}
\setcounter{Listagem}{0}
\setcounter{code}{0}
\setcounter{section@level}{0}
\setcounter{lstlisting}{0}
}
