\relax 
\select@language{english}
\@writefile{toc}{\select@language{english}}
\@writefile{lof}{\select@language{english}}
\@writefile{lot}{\select@language{english}}
\@writefile{toc}{\contentsline {section}{\numberline {1}Introdu\IeC {\c c}\IeC {\~a}o}{1}}
\@writefile{toc}{\contentsline {subsection}{\numberline {1.1}Contexto}{1}}
\@writefile{toc}{\contentsline {subsection}{\numberline {1.2}Motiva\IeC {\c c}\IeC {\~o}es}{2}}
\@writefile{toc}{\contentsline {subsection}{\numberline {1.3}Contribui\IeC {\c c}\IeC {\~o}es}{2}}
\@writefile{toc}{\contentsline {subsection}{\numberline {1.4}Objetivos da disserta\IeC {\c c}\IeC {\~a}o}{3}}
