\relax 
\providecommand\hyper@newdestlabel[2]{}
\catcode `"\active 
\providecommand\HyperFirstAtBeginDocument{\AtBeginDocument}
\HyperFirstAtBeginDocument{\ifx\hyper@anchor\@undefined
\global\let\oldcontentsline\contentsline
\gdef\contentsline#1#2#3#4{\oldcontentsline{#1}{#2}{#3}}
\global\let\oldnewlabel\newlabel
\gdef\newlabel#1#2{\newlabelxx{#1}#2}
\gdef\newlabelxx#1#2#3#4#5#6{\oldnewlabel{#1}{{#2}{#3}}}
\AtEndDocument{\ifx\hyper@anchor\@undefined
\let\contentsline\oldcontentsline
\let\newlabel\oldnewlabel
\fi}
\fi}
\global\let\hyper@last\relax 
\gdef\HyperFirstAtBeginDocument#1{#1}
\providecommand\HyField@AuxAddToFields[1]{}
\providecommand\HyField@AuxAddToCoFields[2]{}
\select@language{portuguese}
\@writefile{toc}{\select@language{portuguese}}
\@writefile{lof}{\select@language{portuguese}}
\@writefile{lot}{\select@language{portuguese}}
\@input{Cap0/ClaudioResumo.aux}
\@writefile{toc}{\contentsline {chapter}{Resumo}{ix}{section*.1}}
\@input{Cap0/ClaudioAbstract.aux}
\@writefile{toc}{\contentsline {chapter}{\textit  {Abstract}}{xi}{section*.2}}
\@input{Cap0/ClaudioAgradecimentos.aux}
\@writefile{toc}{\contentsline {chapter}{\'Indice de tabelas}{xix}{section*.7}}
\citation{vallino1998}
\citation{vallino1998}
\citation{vallino1998}
\citation{krempien2008}
\citation{curry2008}
\@writefile{toc}{\contentsline {chapter}{\'Indice de figuras}{xxi}{section*.9}}
\@input{Cap0/ClaudioGlossario.aux}
\@input{Cap1/CAP1.aux}
\@input{Cap2/CAP2.aux}
\@input{Cap3/CAP3.aux}
\@input{Cap4/CAP4.aux}
\@input{Cap5/CAP5.aux}
\bibstyle{apa}
\citation{*}
\bibdata{ClaudioDissertacaoBiblio}
\@input{Acessorios/ClaudioSobreOAutor.aux}
