\select@language {portuguese}
\addvspace {10\p@ }
\addvspace {10\p@ }
\contentsline {table}{\numberline {2.1}{\ignorespaces Estudo comparativo das principais funcionalidades existentes nos LMS, do ponto de vista do aluno.}}{19}{table.2.1}
\contentsline {table}{\numberline {2.2}{\ignorespaces Estudo comparativo das principais ferramentas e funcionalidades existentes nos LMS, disponibilizadas aos docentes e administradores.}}{20}{table.2.2}
\contentsline {table}{\numberline {2.3}{\ignorespaces Estudo comparativo das principais especifica\c c\~oes t\'ecnicas existentes nos LMS.}}{21}{table.2.3}
\contentsline {table}{\numberline {2.4}{\ignorespaces Diferen\c cas nas frequ\^encias de utiliza\c c\~ao das funcionalidades do Moodle e do Blackboard por estudantes utilizadores destes dois sistemas (os valores m\'edios da escala de frequ\^encia de 1 (muitas vezes) a 4 (nunca)).}}{21}{table.2.4}
\contentsline {table}{\numberline {2.5}{\ignorespaces Estudo comparativo das principais carater\IeC {\'\i }sticas existentes nas frameworks PHP, com o objetivo de aumentar a efici\^encia na cria\c c\~ao de aplica\c c\~oes web.}}{40}{table.2.5}
\contentsline {table}{\numberline {2.6}{\ignorespaces Estudo comparativo das principais carater\IeC {\'\i }sticas existentes nas {\em frameworks} baseadas em diferentes linguagens de programa\c c\~ao.}}{43}{table.2.6}
\addvspace {10\p@ }
\addvspace {10\p@ }
\contentsline {table}{\numberline {4.1}{\ignorespaces Resumo dos totais de turmas e alunos por ano letivo.}}{64}{table.4.1}
\contentsline {table}{\numberline {4.2}{\ignorespaces Resumo dos grupos de alunos criados para as turmas do 1.\IeC {\textordmasculine } CEB.}}{65}{table.4.2}
\addvspace {10\p@ }
