\relax 
\providecommand\hyper@newdestlabel[2]{}
\gdef \LT@i {\LT@entry 
    {1}{97.35826pt}\LT@entry 
    {1}{324.9803pt}}
\@writefile{toc}{\contentsline {chapter}{Gloss\'ario, acr\'onimos e abreviaturas}{xxiii}{chapter*.11}}
\gdef \LT@ii {\LT@entry 
    {1}{97.35826pt}\LT@entry 
    {1}{324.9803pt}}
\@setckpt{Cap0/CapelaGlossario}{
\setcounter{page}{25}
\setcounter{equation}{0}
\setcounter{enumi}{0}
\setcounter{enumii}{0}
\setcounter{enumiii}{0}
\setcounter{enumiv}{0}
\setcounter{footnote}{0}
\setcounter{mpfootnote}{0}
\setcounter{part}{0}
\setcounter{chapter}{0}
\setcounter{section}{0}
\setcounter{subsection}{0}
\setcounter{subsubsection}{0}
\setcounter{paragraph}{0}
\setcounter{subparagraph}{0}
\setcounter{figure}{0}
\setcounter{table}{2}
\setcounter{parentequation}{0}
\setcounter{NAT@ctr}{0}
\setcounter{subfigure}{0}
\setcounter{lofdepth}{1}
\setcounter{subtable}{0}
\setcounter{lotdepth}{1}
\setcounter{LT@tables}{2}
\setcounter{LT@chunks}{5}
\setcounter{float@type}{32}
\setcounter{Item}{0}
\setcounter{Hfootnote}{0}
\setcounter{bookmark@seq@number}{7}
\setcounter{lstnumber}{1}
\setcounter{Listagem}{0}
\setcounter{code}{0}
\setcounter{section@level}{0}
\setcounter{lstlisting}{0}
}
