\BOOKMARK [0][-]{section*.1}{Resumo}{}% 1
\BOOKMARK [0][-]{section*.2}{Abstract}{}% 2
\BOOKMARK [0][-]{chapter*.4}{Agradecimentos}{}% 3
\BOOKMARK [0][-]{.0}{\315ndice geral}{}% 4
\BOOKMARK [0][-]{section*.7}{\315ndice de tabelas}{}% 5
\BOOKMARK [0][-]{section*.9}{\315ndice de figuras}{}% 6
\BOOKMARK [0][-]{chapter*.11}{Gloss\341rio, acr\363nimos e abreviaturas}{}% 7
\BOOKMARK [0][-]{chapter.1}{Introdu\347\343o}{}% 8
\BOOKMARK [1][-]{section.1.1}{Contexto}{chapter.1}% 9
\BOOKMARK [1][-]{section.1.2}{Motiva\347\365es}{chapter.1}% 10
\BOOKMARK [1][-]{section.1.3}{Contribui\347\365es}{chapter.1}% 11
\BOOKMARK [1][-]{section.1.4}{Objetivos da disserta\347\343o}{chapter.1}% 12
\BOOKMARK [1][-]{section.1.5}{Organiza\347\343o da disserta\347\343o}{chapter.1}% 13
\BOOKMARK [0][-]{chapter.2}{Estado da Arte}{}% 14
\BOOKMARK [1][-]{section.2.1}{Ensino \340 dist\342ncia}{chapter.2}% 15
\BOOKMARK [2][-]{subsection.2.1.1}{Enquadramento hist\363rico}{section.2.1}% 16
\BOOKMARK [2][-]{subsection.2.1.2}{Defini\347\365es e conceitos}{section.2.1}% 17
\BOOKMARK [2][-]{subsection.2.1.3}{Ensino eletr\363nico \(e-learning\)}{section.2.1}% 18
\BOOKMARK [2][-]{subsection.2.1.4}{B-learning}{section.2.1}% 19
\BOOKMARK [2][-]{subsection.2.1.5}{M-learning}{section.2.1}% 20
\BOOKMARK [1][-]{section.2.2}{Learning management systems}{chapter.2}% 21
\BOOKMARK [2][-]{subsection.2.2.1}{Compara\347\343o de LMS}{section.2.2}% 22
\BOOKMARK [2][-]{subsection.2.2.2}{Vantagens e desvantagens}{section.2.2}% 23
\BOOKMARK [1][-]{section.2.3}{Objeto de aprendizagem}{chapter.2}% 24
\BOOKMARK [1][-]{section.2.4}{Normaliza\347\343o de metadados para e-learning}{chapter.2}% 25
\BOOKMARK [1][-]{section.2.5}{Normaliza\347\343o dos conte\372dos de e-learning}{chapter.2}% 26
\BOOKMARK [2][-]{subsection.2.5.1}{AICC}{section.2.5}% 27
\BOOKMARK [2][-]{subsection.2.5.2}{IMS}{section.2.5}% 28
\BOOKMARK [1][-]{section.2.6}{SCORM}{chapter.2}% 29
\BOOKMARK [2][-]{subsection.2.6.1}{Content Aggregation Model \(CAM\)}{section.2.6}% 30
\BOOKMARK [2][-]{subsection.2.6.2}{Run-Time Environment \(RTE\)}{section.2.6}% 31
\BOOKMARK [2][-]{subsection.2.6.3}{Sequencing and Navigation \(SN\)}{section.2.6}% 32
\BOOKMARK [1][-]{section.2.7}{Tecnologias no ensino}{chapter.2}% 33
\BOOKMARK [2][-]{subsection.2.7.1}{Realidade aumentada}{section.2.7}% 34
\BOOKMARK [2][-]{subsection.2.7.2}{Dispositivos m\363veis}{section.2.7}% 35
\BOOKMARK [2][-]{subsection.2.7.3}{Plataformas multim\351dia interativas}{section.2.7}% 36
\BOOKMARK [1][-]{section.2.8}{Arquitetura MVC \(Model-View-Controller\)}{chapter.2}% 37
\BOOKMARK [1][-]{section.2.9}{Frameworks}{chapter.2}% 38
\BOOKMARK [2][-]{subsection.2.9.1}{Frameworks PHP}{section.2.9}% 39
\BOOKMARK [2][-]{subsection.2.9.2}{Zend Framework 2}{section.2.9}% 40
\BOOKMARK [2][-]{subsection.2.9.3}{Outras frameworks}{section.2.9}% 41
\BOOKMARK [1][-]{section.2.10}{Conclus\343o}{chapter.2}% 42
\BOOKMARK [0][-]{chapter.3}{Especifica\347\343o da aplica\347\343o}{}% 43
\BOOKMARK [1][-]{section.3.1}{Estrutura organizacional t\355pica de um agrupamento escolar}{chapter.3}% 44
\BOOKMARK [1][-]{section.3.2}{Especifica\347\343o da aplica\347\343o}{chapter.3}% 45
\BOOKMARK [2][-]{subsection.3.2.1}{Diagramas de Casos de Uso}{section.3.2}% 46
\BOOKMARK [2][-]{subsection.3.2.2}{Base de dados}{section.3.2}% 47
\BOOKMARK [2][-]{subsection.3.2.3}{Conceitos de interface com o utilizador \204 Web Design}{section.3.2}% 48
\BOOKMARK [1][-]{section.3.3}{Ambiente de desenvolvimento}{chapter.3}% 49
\BOOKMARK [2][-]{subsection.3.3.1}{M\341quina virtual}{section.3.3}% 50
\BOOKMARK [2][-]{subsection.3.3.2}{Ambiente de desenvolvimento integrado \(IDE\)}{section.3.3}% 51
\BOOKMARK [2][-]{subsection.3.3.3}{Zend framework 2}{section.3.3}% 52
\BOOKMARK [0][-]{chapter.4}{Testes e Resultados}{}% 53
\BOOKMARK [1][-]{section.4.1}{Testes}{chapter.4}% 54
\BOOKMARK [1][-]{section.4.2}{Resultados}{chapter.4}% 55
\BOOKMARK [0][-]{chapter.5}{Conclus\365es e trabalho futuro}{}% 56
\BOOKMARK [0][-]{chapter*.13}{Sobre o Autor}{}% 57
